{
  "worker_class": "gevent",
  "worker_connections": 256,
  "timeout": 3,
  "graceful_timeout": 1,
  "proc_name": "playlister",
  "reload": false,
  "daemon": false,
  "accesslog": "-",
  "errorlog": "-",
  "loglevel": "info"
}
